<svg width="416" height="373" viewBox="0 0 416 373" fill="none" xmlns="http://www.w3.org/2000/svg">
<path d="M52.5392 281.863C52.5392 279.934 52.4287 278.025 52.4086 276.137L52.6899 276.418C48.1291 276.468 43.5583 276.579 38.9975 276.589L25.3052 276.649L25.8176 276.137V287.709L25.3555 287.247C27.6057 287.247 29.8559 287.247 32.1263 287.308L38.877 287.378L52.6899 287.669L52.5392 281.863ZM39.1181 287.991L32.2267 288.111C29.9263 288.111 27.6157 288.111 25.3052 288.172H24.813V287.709V276.137V275.614H25.3354L39.0277 275.685C43.5884 275.685 48.1592 275.795 52.72 275.855H52.941V276.137C52.941 278.096 52.8506 280.055 52.8104 281.983L52.6597 287.709L39.1181 287.991Z" fill="#EBEBEB"/>
<path d="M37.2694 296.419C37.2192 294.49 37.1489 292.592 37.1288 290.693L37.4101 290.974C32.8493 291.035 28.2886 291.145 23.7178 291.145L10.0254 291.215L10.5478 290.693L10.4875 302.266L10.0254 301.804C12.2857 301.804 14.536 301.804 16.7963 301.864L23.5972 301.984L37.4101 302.266L37.2694 296.419ZM23.8082 302.587L16.9168 302.698C14.6163 302.748 12.3058 302.698 9.99531 302.758H9.5332V302.286V290.713V290.201H10.0556L23.7479 290.261C28.3187 290.261 32.8795 290.382 37.4402 290.432H37.7315V290.703C37.7315 292.712 37.6411 294.621 37.6009 296.55L37.4503 302.276L23.8082 302.587Z" fill="#EBEBEB"/>
<path d="M67.8186 296.419C67.8186 294.49 67.698 292.592 67.6779 290.693L67.9693 290.974C63.3985 291.035 58.8377 291.145 54.277 291.145L40.5846 291.215L41.097 290.693L41.0367 302.266L40.5846 301.804C42.8349 301.804 45.0851 301.804 47.3454 301.864L54.1564 301.984L67.9693 302.266L67.8186 296.419ZM54.3875 302.557L47.5061 302.668C45.2057 302.718 42.8851 302.668 40.5846 302.728H40.1225V302.256L40.0623 290.683V290.171H40.5846L54.277 290.231C58.8377 290.231 63.3985 290.351 67.9693 290.402H68.2505V290.673C68.2505 292.682 68.1601 294.591 68.1099 296.52L67.9693 302.246L54.3875 302.557Z" fill="#EBEBEB"/>
<path d="M390.075 296.419C390.025 294.49 389.955 292.592 389.935 290.693L390.216 290.974C385.655 291.035 381.094 291.145 376.524 291.145L362.831 291.215L363.354 290.693L363.293 302.266L362.831 301.804C365.092 301.804 367.342 301.804 369.602 301.864L376.413 301.984L390.216 302.266L390.075 296.419ZM376.644 302.557L369.763 302.668C367.452 302.718 365.142 302.668 362.831 302.728H362.349V302.256V290.723V290.211H362.861L376.554 290.271C381.125 290.271 385.685 290.392 390.246 290.442H390.477V290.713C390.477 292.722 390.387 294.631 390.336 296.56L390.186 302.286L376.644 302.557Z" fill="#EBEBEB"/>
<path d="M390.075 11.1206C390.025 9.19183 389.955 7.29319 389.935 5.39455L390.216 5.67583C385.655 5.72606 381.094 5.83656 376.524 5.84661L362.831 5.90688L363.354 5.39455L363.293 16.9672L362.831 16.5051C365.092 16.5051 367.342 16.5051 369.602 16.5654L376.413 16.6759L390.216 16.9672L390.075 11.1206ZM376.644 17.2585L369.763 17.369C367.452 17.4193 365.142 17.369 362.831 17.4293H362.349V16.9672V5.43473V4.91235H362.861L376.554 4.97263C381.125 4.97263 385.685 5.09318 390.246 5.1434H390.477V5.42469C390.477 7.3836 390.387 9.34252 390.336 11.2713L390.186 16.9974L376.644 17.2585Z" fill="#EBEBEB"/>
<path d="M405.355 25.7472C405.304 23.8284 405.234 21.9198 405.214 20.0312L405.495 20.3124C400.935 20.3124 396.364 20.4732 391.803 20.4732L378.111 20.5435L378.623 20.0312L378.573 31.5938L378.111 31.1417C380.371 31.1417 382.621 31.1417 384.882 31.1417L391.683 31.2623L405.495 31.5436L405.355 25.7472ZM391.924 31.8851L385.032 32.0057C382.732 32.0057 380.421 32.0057 378.111 32.0057H377.649V31.5335L377.598 19.9709V19.4485H378.121L391.813 19.5188C396.374 19.5188 400.945 19.6293 405.505 19.6796H405.797V19.9608C405.797 21.9198 405.706 23.8686 405.666 25.8075L405.546 31.5938L391.924 31.8851Z" fill="#EBEBEB"/>
<path d="M37.2694 11.1714C37.2192 9.24264 37.1489 7.344 37.1288 5.44536L37.4101 5.72664C32.8493 5.78692 28.2886 5.89742 23.7178 5.89742L10.0254 5.96774L10.5478 5.44536L10.4875 17.018L10.0254 16.5559C12.2857 16.5559 14.536 16.5559 16.7963 16.6162L23.5972 16.7267L37.4101 17.018L37.2694 11.1714ZM23.8082 17.3094L16.9168 17.4199C14.6163 17.4199 12.3058 17.4199 9.99531 17.4801H9.5332V17.018V5.44536V4.93303H10.0556L23.7479 4.9933C28.3187 4.9933 32.8795 5.11385 37.4402 5.16408H37.7315V5.44536C37.7315 7.4545 37.6411 9.36319 37.6009 11.292L37.4503 17.018L23.8082 17.3094Z" fill="#EBEBEB"/>
<path d="M252.248 208.74C252.298 210.659 252.369 212.567 252.389 214.466L252.108 214.175C256.668 214.125 261.239 214.014 265.8 214.014L279.492 213.944L278.97 214.466L279.03 202.893L279.492 203.345C277.232 203.345 274.982 203.345 272.721 203.345L265.92 203.225L252.108 202.944L252.248 208.74ZM265.679 202.602L272.571 202.482C274.871 202.482 277.182 202.482 279.492 202.431H279.974V202.903V214.476V214.988H279.452L265.76 214.918C261.199 214.918 256.628 214.808 252.067 214.757H251.846V214.486C251.846 212.477 251.937 210.568 251.977 208.63L252.128 202.914L265.679 202.602Z" fill="#EBEBEB"/>
<path d="M267.527 194.144C267.578 196.072 267.648 197.971 267.668 199.87L267.387 199.588C271.947 199.538 276.508 199.428 281.079 199.418L294.771 199.357L294.249 199.87L294.309 188.297L294.771 188.759C292.511 188.759 290.261 188.759 288.001 188.699L281.19 188.588L267.387 188.297L267.527 194.144ZM280.979 188.006L287.86 187.895C290.16 187.845 292.481 187.895 294.791 187.835H295.243V188.297L295.304 199.87V200.392H294.791L281.099 200.332C276.528 200.332 271.968 200.211 267.407 200.161H267.115V199.88C267.115 197.921 267.206 195.962 267.256 194.033L267.407 188.307L280.979 188.006Z" fill="#EBEBEB"/>
<path d="M304.526 19.8202L231.112 106.334L342.75 126.656L304.526 19.8202Z" fill="#EBEBEB"/>
<path d="M301.984 33.8239L244.513 101.542L331.9 117.445L301.984 33.8239Z" fill="white"/>
<path d="M293.566 54.9099L302.426 56.5273L295.887 89.0352L288.232 87.6489L293.566 54.9099Z" fill="#EBEBEB"/>
<path d="M295.118 93.1511L287.468 91.7582L286.075 99.4078L293.725 100.801L295.118 93.1511Z" fill="#EBEBEB"/>
<path d="M100.367 217.641L72.54 285.61L145.311 275.725L100.367 217.641Z" fill="#EBEBEB"/>
<path d="M101.602 226.772L79.8232 279.974L136.782 272.239L101.602 226.772Z" fill="white"/>
<path d="M100.658 241.439L106.424 240.655L108.926 261.972L103.933 262.655L100.658 241.439Z" fill="#EBEBEB"/>
<path d="M109.266 264.653L104.279 265.33L104.956 270.317L109.943 269.64L109.266 264.653Z" fill="#EBEBEB"/>
<path d="M207.645 372.264C303.145 372.264 380.562 365.779 380.562 357.778C380.562 349.778 303.145 343.292 207.645 343.292C112.146 343.292 34.7283 349.778 34.7283 357.778C34.7283 365.779 112.146 372.264 207.645 372.264Z" fill="#EBEBEB"/>
<path d="M366.528 299.955C366.528 299.955 374.745 270.491 381.295 260.486C387.845 250.48 400.071 239.48 400.071 239.48C400.071 239.48 399.789 284.917 366.528 299.955Z" fill="#ED0002"/>
<path d="M363.986 302.617C363.986 302.617 378.744 275.444 374.454 249.104C370.164 222.764 365.584 213.381 365.584 213.381C365.584 213.381 342.388 254.348 363.986 302.617Z" fill="#ED0002"/>
<path d="M357.929 259.903C359.177 267.366 361.083 274.705 363.625 281.833C363.625 272.169 363.856 262.505 364.107 252.841C362.455 246.972 361.528 240.923 361.345 234.829C361.345 234.648 361.606 234.668 361.616 234.829C362.085 240.051 362.952 245.229 364.208 250.319C364.429 242.343 364.686 234.37 364.981 226.4C364.981 226.27 365.192 226.27 365.192 226.4C365.192 238.857 365.192 251.314 365.112 263.781C366.91 258.964 368.338 254.017 369.381 248.983H369.472C368.873 254.783 367.403 260.459 365.112 265.82C365.051 273.786 364.971 281.752 364.79 289.709C367.292 281.24 369.954 273.043 370.677 264.102C370.684 264.082 370.696 264.064 370.714 264.052C370.731 264.04 370.751 264.033 370.772 264.033C370.794 264.033 370.814 264.04 370.831 264.052C370.848 264.064 370.861 264.082 370.868 264.102C370.667 273.967 368.125 283.982 364.84 293.235C364.804 293.322 364.749 293.401 364.68 293.466C364.599 296.369 364.519 299.282 364.419 302.195C364.419 302.281 364.385 302.362 364.324 302.423C364.264 302.483 364.182 302.517 364.097 302.517C364.012 302.517 363.93 302.483 363.87 302.423C363.809 302.362 363.776 302.281 363.776 302.195C363.655 296.238 363.615 290.281 363.625 284.334C360.412 276.537 358.449 268.282 357.808 259.873C357.798 259.843 357.919 259.823 357.929 259.903Z" fill="#263238"/>
<path d="M358.943 255.694C359.448 258.061 359.784 260.461 359.948 262.876C359.948 262.957 359.827 262.967 359.807 262.876C359.234 260.524 358.831 258.134 358.602 255.724C358.592 255.553 358.903 255.513 358.943 255.694Z" fill="#263238"/>
<path d="M367.573 235.833C367.573 235.753 367.703 235.783 367.713 235.833C367.693 237.51 367.443 239.177 366.97 240.786C366.962 240.813 366.944 240.835 366.919 240.848C366.895 240.861 366.866 240.864 366.839 240.856C366.813 240.848 366.79 240.83 366.777 240.805C366.764 240.781 366.761 240.752 366.769 240.726C367.091 239.158 367.291 237.471 367.573 235.833Z" fill="#263238"/>
<path d="M358.602 304.697C358.602 304.697 359.205 276.328 351.068 262.234C342.931 248.139 329.439 240.957 329.439 240.957C329.439 240.957 334.884 290.944 358.602 304.697Z" fill="#ED0002"/>
<path d="M343.774 280.436C347.059 285.39 350.756 290.058 354.825 294.39C353.207 288.593 351.319 282.898 349.199 277.312C344.638 273.294 340.108 269.165 337.315 263.69C337.31 263.682 337.308 263.672 337.307 263.662C337.306 263.653 337.306 263.643 337.309 263.634C337.312 263.624 337.317 263.616 337.323 263.608C337.329 263.601 337.337 263.594 337.345 263.59C337.354 263.585 337.363 263.582 337.373 263.581C337.383 263.58 337.392 263.581 337.402 263.584C337.411 263.587 337.42 263.591 337.427 263.597C337.435 263.604 337.441 263.611 337.446 263.62C340.459 268.462 344.478 272.339 348.717 276.066C345.449 267.621 341.665 259.385 337.385 251.404C337.366 251.363 337.363 251.317 337.377 251.274C337.391 251.231 337.42 251.194 337.459 251.172C337.498 251.149 337.544 251.142 337.588 251.151C337.632 251.161 337.671 251.187 337.697 251.223C340.299 255.407 342.67 259.729 344.799 264.172C344.036 261.159 343.423 258.034 342.649 255.031C342.649 254.94 342.74 254.91 342.78 255.031C344.375 258.899 345.495 262.947 346.115 267.086C348.944 273.338 351.324 279.783 353.237 286.373C353.027 282.114 352.765 277.885 352.323 273.645C352.323 273.565 352.454 273.545 352.464 273.645C353.372 278.351 353.786 283.139 353.7 287.93C354.872 292.156 355.856 296.429 356.653 300.749C356.653 300.773 356.644 300.796 356.627 300.813C356.61 300.83 356.587 300.839 356.563 300.839C356.539 300.839 356.516 300.83 356.499 300.813C356.482 300.796 356.472 300.773 356.472 300.749C356.03 298.951 355.548 297.152 355.056 295.364C355.056 295.364 354.995 295.364 354.965 295.364C350.436 291.031 346.643 285.989 343.734 280.436C343.734 280.436 343.764 280.406 343.774 280.436Z" fill="#263238"/>
<path d="M334.352 257.361C335.256 258.366 336.089 259.37 336.963 260.375C337.813 261.227 338.596 262.144 339.304 263.118C339.304 263.118 339.304 263.198 339.244 263.178C338.225 262.415 337.316 261.516 336.542 260.506C335.682 259.57 334.906 258.562 334.221 257.492C334.221 257.381 334.291 257.291 334.352 257.361Z" fill="#263238"/>
<path d="M382.782 301.231L381.777 310.272L378.683 337.757H351.71L348.616 310.272L347.612 301.231H382.772H382.782Z" fill="#455A64"/>
<path d="M382.782 301.231L381.778 310.272H348.627L347.622 301.231H382.782Z" fill="#37474F"/>
<path d="M345.191 304.938H385.163V294.641H345.191V304.938Z" fill="#455A64"/>
<path d="M411.302 337.737L360.39 337.978L309.469 338.069L207.645 338.239L105.822 338.069L54.9 337.978L3.98828 337.737L54.9 337.486L105.822 337.406L207.645 337.235L309.469 337.406L360.39 337.496L411.302 337.737Z" fill="#263238"/>
<path d="M78.8489 215.41V184.64H13.2102V160.058L88.5531 71.2242H109.006V159.847H128.786V184.64H108.966V215.41H78.8489ZM43.3273 159.847H82.2143V113.165L43.3273 159.847Z" fill="#ED0002"/>
<path d="M264.062 128.656C264.16 137.225 262.675 145.739 259.682 153.77C256.951 161.099 252.83 167.832 247.547 173.6C242.38 179.191 236.101 183.64 229.113 186.66C221.797 189.732 213.942 191.315 206.008 191.315C198.073 191.315 190.218 189.732 182.903 186.66C175.956 183.623 169.716 179.176 164.579 173.6C159.299 167.833 155.185 161.1 152.464 153.77C146.603 137.54 146.603 119.771 152.464 103.541C155.196 96.2123 159.317 89.4792 164.599 83.711C169.912 78.0327 176.335 73.506 183.469 70.4113C190.603 67.3165 198.297 65.7197 206.073 65.7197C213.849 65.7197 221.543 67.3165 228.677 70.4113C235.811 73.506 242.234 78.0327 247.547 83.711C252.826 89.4818 256.946 96.2142 259.682 103.541C262.673 111.572 264.158 120.086 264.062 128.656ZM233.764 128.656C233.818 123.526 233.142 118.415 231.755 113.476C230.577 109.203 228.637 105.177 226.029 101.592C223.711 98.4234 220.714 95.8117 217.259 93.9476C213.828 92.1455 210.003 91.2238 206.128 91.2654C202.181 91.2073 198.281 92.1289 194.777 93.9476C191.326 95.8149 188.334 98.4262 186.017 101.592C183.405 105.176 181.462 109.202 180.281 113.476C178.894 118.415 178.217 123.526 178.271 128.656C178.213 133.749 178.89 138.824 180.281 143.724C181.479 147.958 183.421 151.945 186.017 155.498C188.331 158.666 191.324 161.278 194.777 163.142C198.281 164.961 202.181 165.883 206.128 165.825C210.003 165.866 213.828 164.945 217.259 163.142C220.717 161.281 223.713 158.669 226.029 155.498C228.621 151.944 230.56 147.957 231.755 143.724C233.146 138.824 233.823 133.749 233.764 128.656Z" fill="#ED0002"/>
<path d="M402.08 128.656C402.178 137.225 400.693 145.739 397.7 153.77C394.969 161.102 390.845 167.836 385.555 173.6C380.394 179.193 374.118 183.642 367.131 186.66C359.815 189.731 351.96 191.313 344.026 191.313C336.091 191.313 328.237 189.731 320.921 186.66C313.977 183.623 307.741 179.175 302.607 173.6C297.321 167.835 293.2 161.101 290.472 153.77C284.625 137.537 284.625 119.774 290.472 103.541C293.208 96.2117 297.332 89.4787 302.617 83.711C307.929 78.0317 314.35 73.5039 321.484 70.4085C328.617 67.313 336.31 65.7157 344.086 65.7157C351.862 65.7157 359.555 67.313 366.689 70.4085C373.822 73.5039 380.243 78.0317 385.555 83.711C390.841 89.4787 394.964 96.2117 397.7 103.541C400.691 111.572 402.176 120.086 402.08 128.656ZM371.732 128.656C371.786 123.526 371.11 118.415 369.723 113.476C368.541 109.202 366.598 105.176 363.987 101.592C361.67 98.4262 358.677 95.8149 355.227 93.9476C351.796 92.1455 347.971 91.2238 344.096 91.2654C340.149 91.206 336.248 92.1277 332.745 93.9476C329.291 95.8145 326.295 98.4257 323.975 101.592C321.366 105.177 319.427 109.203 318.249 113.476C316.862 118.415 316.185 123.526 316.239 128.656C316.181 133.749 316.858 138.824 318.249 143.724C319.443 147.957 321.382 151.944 323.975 155.498C326.293 158.667 329.289 161.279 332.745 163.142C336.248 164.962 340.149 165.884 344.096 165.825C347.971 165.866 351.796 164.945 355.227 163.142C358.68 161.278 361.672 158.666 363.987 155.498C366.579 151.944 368.518 147.957 369.713 143.724C371.107 138.825 371.787 133.749 371.732 128.656Z" fill="#ED0002"/>
<path d="M207.645 191.733C240.673 191.733 267.447 163.33 267.447 128.294C267.447 93.2577 240.673 64.8552 207.645 64.8552C174.617 64.8552 147.843 93.2577 147.843 128.294C147.843 163.33 174.617 191.733 207.645 191.733Z" fill="#ED0002"/>
<path opacity="0.1" d="M267.447 128.294C267.447 163.333 240.675 191.733 207.645 191.733C181.064 191.733 158.552 173.339 150.766 147.903C163.233 158.953 187.564 175.539 215.32 168.929C245.979 161.626 260.184 139.515 266.232 115.506C267.041 119.72 267.448 124.002 267.447 128.294Z" fill="black"/>
<path opacity="0.1" d="M240.444 83.1384C239.525 82.2273 238.515 81.4127 237.431 80.7073L240.133 80.3457C240.344 80.3457 240.273 80.0041 240.133 79.9941C238.891 79.8967 237.643 79.9202 236.406 80.0644C234.677 79.0741 232.812 78.343 230.871 77.8945C232.666 77.3217 234.494 76.8587 236.346 76.5082C236.536 76.5082 236.496 76.1566 236.295 76.1667C234.076 76.3337 231.895 76.835 229.826 77.6534C228.477 77.4022 227.109 77.2711 225.737 77.2616C225.627 77.2616 225.637 77.4224 225.737 77.4324C226.85 77.5348 227.954 77.7127 229.042 77.9648C227.824 78.4799 226.643 79.0774 225.506 79.753C224.575 79.6879 223.641 79.708 222.714 79.8132C222.613 79.8132 222.613 79.974 222.714 79.9639C223.481 79.93 224.251 79.9568 225.014 80.0443C223.772 80.8131 222.584 81.6656 221.458 82.5959C221.377 82.6562 221.458 82.7667 221.558 82.7064C222.818 81.7221 224.163 80.8515 225.577 80.1046C227.247 80.342 228.885 80.7701 230.459 81.3804C229.133 81.8023 227.817 82.2745 226.531 82.7767C226.441 82.7767 226.481 82.9475 226.531 82.9073C228.041 82.3733 229.589 81.9535 231.162 81.6516C232.578 82.2041 233.985 82.827 235.421 83.4197C235.632 83.5101 235.773 83.1585 235.572 83.058C234.505 82.4568 233.405 81.9168 232.277 81.4407C233.613 81.2096 234.949 81.0288 236.295 80.858C237.626 81.6253 238.902 82.4847 240.113 83.4297C240.354 83.5904 240.635 83.3293 240.444 83.1384ZM231.403 81.1292C229.726 80.4742 227.969 80.0419 226.179 79.8434C227.422 79.2263 228.704 78.6927 230.017 78.2461C231.812 78.7272 233.55 79.4008 235.2 80.2553C233.919 80.4538 232.651 80.7289 231.403 81.079V81.1292Z" fill="black"/>
<path opacity="0.1" d="M161.565 125.19C161.766 125.099 161.616 124.838 161.425 124.868C160.584 125.017 159.769 125.284 159.004 125.662C159.289 124.747 159.624 123.848 160.008 122.97C160.025 122.922 160.024 122.87 160.006 122.822C159.989 122.774 159.956 122.734 159.912 122.709C159.868 122.683 159.817 122.672 159.767 122.68C159.717 122.687 159.671 122.711 159.637 122.749C159 123.791 158.513 124.917 158.19 126.094C157.037 126.773 155.994 127.623 155.096 128.615C155.152 126.892 155.398 125.181 155.829 123.512C155.836 123.464 155.825 123.416 155.798 123.376C155.772 123.335 155.732 123.306 155.686 123.292C155.64 123.279 155.59 123.283 155.546 123.303C155.503 123.323 155.468 123.358 155.448 123.402C154.709 125.275 154.393 127.289 154.523 129.298C153.722 130.268 153.047 131.334 152.514 132.473C152.514 132.563 152.595 132.644 152.645 132.553C153.183 131.589 153.834 130.692 154.584 129.881C154.67 130.758 154.821 131.628 155.036 132.483C154.654 132.835 154.282 133.186 153.951 133.538C153.85 133.628 154.001 133.779 154.101 133.688C154.433 133.377 154.784 133.106 155.106 132.825C155.343 133.684 155.645 134.523 156.01 135.336C156.01 135.426 156.201 135.336 156.171 135.266C155.842 134.394 155.583 133.497 155.397 132.583C156.095 132.028 156.83 131.521 157.597 131.067L157.738 131.006C157.794 131.867 157.908 132.723 158.079 133.568C158.079 133.668 158.26 133.618 158.24 133.568C158.12 132.672 158.08 131.768 158.12 130.866C159.124 130.353 160.129 129.931 161.133 129.389C161.324 129.278 161.184 129.027 160.993 129.057C159.98 129.271 159.009 129.652 158.12 130.182C158.203 128.998 158.399 127.824 158.702 126.677C159.616 126.124 160.561 125.642 161.565 125.19ZM155.327 132.222C155.157 131.287 155.066 130.339 155.056 129.389C155.928 128.529 156.895 127.77 157.939 127.129C157.732 128.217 157.652 129.326 157.698 130.434C156.857 130.952 156.063 131.543 155.327 132.202V132.222Z" fill="black"/>
<path d="M183.535 99.9348C173.048 107.077 167.854 116.38 168.467 126.757C169.08 137.134 161.324 145.402 160.43 156.713C159.536 168.025 166.196 176.041 166.196 181.205C166.196 186.368 161.093 195.48 161.093 195.48C161.093 195.48 172.224 210.016 202.843 209.544C233.463 209.072 247.888 198.684 247.888 198.684C247.888 198.684 243.458 189.03 243.006 186.137C242.554 183.244 249.275 172.656 249.465 163.585C249.656 154.513 241.509 142.278 241.489 137.777C241.469 133.277 242.433 107.69 222.985 98.2773C216.799 95.2185 209.943 93.767 203.048 94.0567C196.153 94.3463 189.443 96.3679 183.535 99.9348Z" fill="#263238"/>
<path d="M171.762 131.84C171.963 131.388 171.43 130.835 171.079 131.277C165.527 138.244 161.385 146.225 158.883 154.774C156.523 162.901 158.712 170.677 162.58 177.779C162.691 177.98 162.972 177.779 162.871 177.598C158.692 169.28 157.849 161.163 161.365 152.384C164.248 145.131 168.517 138.812 171.762 131.84Z" fill="#263238"/>
<path d="M250.932 163.414C249.546 154.945 244.322 146.567 240.475 139.204C240.423 139.13 240.348 139.078 240.262 139.054C240.176 139.031 240.085 139.038 240.003 139.075C239.922 139.112 239.857 139.176 239.818 139.257C239.779 139.337 239.77 139.428 239.791 139.515C242.172 146.607 246.201 153.006 248.38 160.159C250.718 167.978 250.018 176.391 246.422 183.716C246.311 183.947 246.612 184.138 246.743 183.917C250.544 177.802 252.03 170.529 250.932 163.414Z" fill="#263238"/>
<path d="M249.405 153.77C245.467 146.939 241.519 139.555 240.022 131.569C240.022 131.388 239.741 131.478 239.771 131.659C240.87 138.133 242.979 144.394 246.02 150.214C249.496 156.834 254.689 162.982 255.272 170.888C255.266 170.909 255.265 170.931 255.269 170.952C255.274 170.973 255.282 170.993 255.296 171.01C255.309 171.027 255.326 171.041 255.345 171.051C255.364 171.061 255.386 171.066 255.407 171.066C255.429 171.066 255.45 171.061 255.47 171.051C255.489 171.041 255.506 171.027 255.519 171.01C255.532 170.993 255.541 170.973 255.546 170.952C255.55 170.931 255.549 170.909 255.543 170.888C255.965 164.227 252.529 159.195 249.405 153.77Z" fill="#263238"/>
<path d="M169.23 204.36C135.497 243.619 95.2032 324.085 104.787 339.184C115.455 355.99 164.147 300.076 162.399 297.604C160.912 295.515 176.242 247.527 187.363 212.437C198.483 177.347 177.578 194.656 169.23 204.36Z" fill="#D3766A"/>
<path d="M169.23 204.36C135.497 243.619 95.2032 324.085 104.787 339.184C115.455 355.99 164.147 300.076 162.399 297.604C160.912 295.515 176.242 247.527 187.363 212.437C198.483 177.347 177.578 194.656 169.23 204.36Z" fill="#455A64"/>
<path d="M137.004 334.944L142.87 297.424C142.87 297.424 129.027 273.254 137.064 255.905C141.082 247.125 168.919 204.189 183.887 193.32C197.951 183.123 219.378 193.149 225.918 202.019C244.734 227.526 254.478 251.726 264.986 334.975L137.004 334.944Z" fill="#455A64"/>
<path d="M215.31 193.571C214.684 194.533 214.13 195.541 213.652 196.585C212.903 198.209 212.386 199.93 212.115 201.698C213.259 200.324 214.203 198.796 214.918 197.157C215.375 196.116 215.761 195.046 216.073 193.953L215.31 193.571ZM195.871 262.806C195.113 264.424 194.592 266.143 194.324 267.909C195.472 266.538 196.416 265.009 197.127 263.369C197.878 261.745 198.395 260.024 198.664 258.255C197.521 259.631 196.58 261.164 195.871 262.806ZM178.985 333.016C178.713 333.648 178.452 334.291 178.221 334.944H179.577C179.818 334.492 180.039 334.04 180.25 333.578C181.002 331.955 181.52 330.234 181.787 328.465C180.645 329.844 179.702 331.375 178.985 333.016ZM249.978 251.555C249.978 251.605 249.978 251.645 249.978 251.696V251.645C249.982 251.615 249.982 251.585 249.978 251.555ZM215.822 323.723C215.071 325.347 214.554 327.068 214.285 328.837C216.552 326.054 218.048 322.725 218.625 319.183C217.481 320.556 216.537 322.085 215.822 323.723ZM143.825 290.281C143.074 291.901 142.556 293.619 142.288 295.384C144.554 292.602 146.051 289.273 146.627 285.73C145.485 287.109 144.542 288.641 143.825 290.281ZM167.462 238.244C166.702 239.865 166.181 241.587 165.915 243.358C167.066 241.985 168.011 240.452 168.718 238.807C169.473 237.189 169.991 235.47 170.255 233.704C169.114 235.078 168.174 236.606 167.462 238.244ZM231.242 218.826C229.622 218.075 227.904 217.558 226.139 217.289C227.51 218.436 229.04 219.38 230.68 220.092C232.303 220.842 234.025 221.36 235.793 221.629C234.411 220.486 232.876 219.542 231.232 218.826H231.242ZM246.2 277.091C244.584 276.331 242.864 275.813 241.097 275.554C242.469 276.698 243.998 277.639 245.638 278.347C247.261 279.101 248.982 279.622 250.751 279.894C249.369 278.762 247.834 277.831 246.19 277.131L246.2 277.091ZM163.635 215.43L163.183 216.033C163.709 216.165 164.242 216.265 164.78 216.335C164.405 216.04 164.02 215.752 163.625 215.471L163.635 215.43ZM178.854 287.76C177.233 287.003 175.51 286.485 173.741 286.223C175.117 287.365 176.649 288.306 178.291 289.015C179.912 289.775 181.634 290.296 183.405 290.562C182.023 289.42 180.488 288.476 178.844 287.76H178.854ZM196.213 227.747C195.598 226.066 194.746 224.483 193.681 223.045C194.054 226.613 195.349 230.023 197.439 232.94C197.279 231.159 196.862 229.409 196.203 227.747H196.213ZM219.961 287.93C219.354 286.249 218.504 284.665 217.44 283.229C217.813 286.797 219.107 290.207 221.197 293.124C221.037 291.341 220.617 289.592 219.951 287.93H219.961ZM141.072 248.662C140.841 249.064 140.6 249.465 140.369 249.847C140.734 250.553 141.161 251.226 141.645 251.856C141.568 250.773 141.373 249.702 141.062 248.662H141.072ZM156.904 313.035C156.289 311.355 155.437 309.771 154.373 308.333C154.539 310.114 154.955 311.862 155.608 313.527C156.223 315.207 157.075 316.79 158.14 318.228C157.975 316.446 157.556 314.697 156.894 313.035H156.904ZM182.802 202.994C181.124 203.609 179.541 204.458 178.101 205.515C179.882 205.353 181.631 204.937 183.294 204.28C184.976 203.673 186.56 202.823 187.996 201.758C186.214 201.918 184.465 202.334 182.802 202.994ZM242.283 307.731C240.605 308.346 239.022 309.195 237.581 310.252C239.375 310.081 241.134 309.651 242.805 308.976C244.487 308.369 246.07 307.52 247.506 306.455C245.715 306.613 243.955 307.029 242.283 307.69V307.731ZM160.239 266.282C158.561 266.897 156.979 267.746 155.538 268.803C157.318 268.64 159.066 268.228 160.731 267.578C162.412 266.963 163.995 266.11 165.433 265.046C163.651 265.207 161.902 265.624 160.239 266.282ZM193.39 308.856C191.712 309.471 190.13 310.32 188.689 311.377C192.257 311.004 195.667 309.709 198.584 307.62C196.817 307.775 195.082 308.181 193.43 308.826L193.39 308.856ZM137.707 330.243L137.456 331.8H137.546C139.224 331.185 140.807 330.336 142.247 329.279C140.713 329.391 139.2 329.705 137.747 330.213L137.707 330.243ZM223.346 247.547C221.666 248.161 220.083 249.014 218.645 250.078C222.213 249.705 225.623 248.41 228.54 246.321C226.774 246.473 225.039 246.875 223.387 247.516L223.346 247.547Z" fill="#37474F"/>
<path d="M159.426 220.273C156.593 224.157 153.823 228.108 151.118 232.126C151.861 230.569 152.605 229.022 153.328 227.465C153.332 227.444 153.33 227.422 153.321 227.402C153.311 227.382 153.296 227.366 153.277 227.356C153.257 227.345 153.235 227.342 153.214 227.345C153.192 227.349 153.172 227.359 153.157 227.375C152.152 229.324 151.228 231.303 150.324 233.292C146.701 238.649 143.188 244.088 139.786 249.606C138.309 251.915 137.058 254.361 136.049 256.909C135.121 259.413 134.504 262.021 134.211 264.675C133.914 267.32 133.874 269.988 134.09 272.641C134.274 275.375 134.661 278.091 135.246 280.768C135.932 283.808 136.89 286.78 138.109 289.648C138.711 291.045 139.344 292.431 140.037 293.797C140.73 295.163 141.956 297.564 141.936 297.665C141.675 299.061 141.414 300.046 141.243 301.221L140.7 304.827C140.339 307.225 139.984 309.629 139.635 312.04C138.932 316.812 138.33 321.584 137.737 326.365C137.395 329.118 137.214 331.89 136.833 334.623C136.833 334.733 136.983 334.784 137.004 334.623C137.395 332.242 138.008 329.881 138.42 327.511C138.832 325.14 139.294 322.739 139.746 320.358C140.65 315.546 141.353 310.694 142.107 305.862C142.318 304.516 142.529 303.18 142.73 301.844C143.03 300.375 143.201 298.882 143.242 297.383C143.242 297.383 138.962 288.573 137.295 282.405C136.521 279.801 135.95 277.141 135.587 274.449C135.306 271.819 135.276 269.169 135.497 266.533C135.704 263.898 136.213 261.296 137.014 258.778C137.872 256.218 138.986 253.751 140.339 251.414C143.131 246.442 146.105 241.569 149.119 236.727C152.544 231.232 156 225.767 159.536 220.353C159.637 220.262 159.496 220.182 159.426 220.273Z" fill="#263238"/>
<path d="M185.936 292.702C179.949 292.984 173.992 293.716 168.115 294.892C165.202 295.505 162.339 296.258 159.466 297.072C158.039 297.484 156.613 297.836 155.166 298.187C153.667 298.602 152.121 298.828 150.565 298.86C150.536 298.86 150.508 298.872 150.487 298.893C150.466 298.913 150.455 298.941 150.455 298.971C150.455 299 150.466 299.028 150.487 299.049C150.508 299.07 150.536 299.081 150.565 299.081C152.028 299.212 153.498 299.242 154.965 299.172C156.384 299.062 157.794 298.858 159.185 298.559C162.138 297.956 165.071 297.213 168.035 296.55C173.992 295.274 179.949 293.998 185.997 293.154C186.268 293.154 186.218 292.682 185.936 292.702Z" fill="#263238"/>
<path d="M200.462 298.589C195.569 297.869 190.638 297.43 185.695 297.273C183.224 297.203 180.763 297.273 178.291 297.404C177.116 297.474 175.941 297.564 174.765 297.665C173.59 297.765 172.184 298.057 170.888 298.147C170.757 298.147 170.747 298.368 170.888 298.368C172.113 298.318 173.349 298.468 174.574 298.488L178.271 298.539C180.732 298.539 183.194 298.649 185.665 298.669C190.597 298.669 195.52 298.79 200.452 298.991C200.713 299.001 200.713 298.619 200.462 298.589Z" fill="#263238"/>
<path d="M105.581 340.851C115.797 350.827 138.099 348.888 194.706 349.209C202.542 349.26 217.741 294.068 209.383 293.586C198.845 292.983 157.838 292.913 154.845 293.295C129.54 296.419 98.6491 334.091 105.581 340.851Z" fill="#D3766A"/>
<path d="M190.397 294.701C190.397 294.701 212.296 288.232 224.843 288.393C241.66 288.614 256.085 295.716 261.952 299.061C274.198 306.043 298.981 331.388 292.933 339.796C287.448 347.411 263.429 320.227 263.429 320.227C263.429 320.227 292.491 343.905 284.203 351.861C275.916 359.818 249.837 326.667 249.837 326.667C249.837 326.667 279.15 351.66 269.316 358.512C261.872 363.695 236.557 335.005 236.557 335.005C236.557 335.005 261.601 356.693 254.187 362.319C245.99 368.567 220.956 343.554 220.956 343.554C199.679 354.745 184.711 350.475 174.534 346.828C172.073 345.944 190.397 294.701 190.397 294.701Z" fill="#D3766A"/>
<path d="M253.855 311.397C257.371 314.049 260.948 316.721 264.212 319.685C267.477 322.648 270.652 325.712 273.625 328.967C280.929 336.943 284.244 343.081 284.003 342.73C278.166 334.291 266.644 323.512 263.369 320.549C260.094 317.585 257 314.521 253.745 311.508C253.695 311.488 253.855 311.327 253.855 311.397Z" fill="#263238"/>
<path d="M242.996 323C247.336 326.586 251.776 330.032 255.955 333.769C260.134 337.506 263.74 341.464 267.638 345.502C267.939 345.814 267.638 345.874 267.357 345.573C263.338 341.695 259.26 338.42 255.161 334.583C251.063 330.745 247.125 326.757 242.895 323.09C242.805 323.04 242.926 322.94 242.996 323Z" fill="#263238"/>
<path d="M231.845 331.268C238.757 336.411 244.714 342.83 250.41 349.26C250.691 349.581 250.339 349.611 250.028 349.26C244.001 343.162 239.259 338.33 231.664 331.459C231.544 331.408 231.695 331.157 231.845 331.268Z" fill="#263238"/>
<path d="M216.455 288.182L177.397 351.178C177.397 351.178 114.35 355.347 104.927 339.877C95.5045 324.406 139.766 293.948 154.754 293.214C169.742 292.481 216.455 288.182 216.455 288.182Z" fill="#455A64"/>
<path d="M137.094 330.444C135.414 331.059 133.831 331.911 132.392 332.975C135.961 332.602 139.371 331.308 142.288 329.218C140.507 329.376 138.758 329.789 137.094 330.444ZM193.43 308.826C191.752 309.441 190.17 310.29 188.729 311.347C192.297 310.974 195.707 309.679 198.624 307.59C196.842 307.751 195.093 308.167 193.43 308.826ZM156.894 313.035C156.279 311.355 155.427 309.771 154.362 308.333C154.529 310.114 154.945 311.862 155.598 313.527C156.213 315.207 157.065 316.79 158.13 318.228C157.968 316.447 157.552 314.698 156.894 313.035ZM121.844 311.106C121.744 310.845 121.634 310.594 121.523 310.342C121.151 310.634 120.79 310.935 120.428 311.236L120.549 311.588C121.163 313.271 122.016 314.858 123.08 316.3C122.92 314.518 122.504 312.769 121.844 311.106ZM156.492 348.586C154.87 347.829 153.148 347.308 151.379 347.039C152.75 348.187 154.279 349.131 155.92 349.842C157.544 350.592 159.265 351.109 161.033 351.379C159.661 350.235 158.132 349.294 156.492 348.586ZM112.291 338.862C110.67 338.102 108.948 337.581 107.178 337.315C108.55 338.466 110.083 339.411 111.728 340.118C113.347 340.873 115.065 341.391 116.832 341.655C115.473 340.518 113.962 339.578 112.341 338.862H112.291ZM178.934 333.016C178.182 334.639 177.665 336.36 177.397 338.129C179.661 335.341 181.158 332.009 181.737 328.465C180.613 329.847 179.686 331.378 178.985 333.016H178.934Z" fill="#37474F"/>
<path d="M131.669 303.622C134.924 300.678 144.327 293.466 154.775 293.214C154.885 293.214 154.915 293.375 154.775 293.395C146.386 294.802 135.155 301.161 131.77 303.752C131.753 303.756 131.735 303.755 131.719 303.75C131.702 303.744 131.688 303.733 131.677 303.72C131.667 303.706 131.66 303.689 131.659 303.672C131.658 303.655 131.661 303.637 131.669 303.622Z" fill="#263238"/>
<path d="M166.458 343.202C181.838 321.724 194.736 296.811 197.288 292.632C197.408 292.431 197.077 292.26 196.966 292.471C194.676 296.7 176.875 323.563 166.106 343.021C165.975 343.242 166.307 343.403 166.458 343.202Z" fill="#263238"/>
<path d="M212.346 193.712C211.543 196.052 195.64 213.22 185.092 209.845C177.679 207.464 186.097 191.15 186.097 191.15L183.505 169.049L212.356 154.664C212.356 154.664 212.668 192.727 212.346 193.712Z" fill="#D3766A"/>
<path d="M212.417 168.889C209.688 174.027 205.929 178.548 201.374 182.17C196.82 185.791 191.568 188.434 185.946 189.934L183.535 169.069L212.397 154.684C212.397 154.684 212.387 161.103 212.417 168.889Z" fill="#263238"/>
<path d="M162.881 129.218C150.334 163.374 169.401 174.775 176.775 177.438C183.465 179.889 206.58 187.373 222.583 154.664C238.586 121.955 226.651 105.309 211.633 98.9102C196.615 92.511 175.418 95.0325 162.881 129.218Z" fill="#D3766A"/>
<path d="M173.68 124.466C174.503 124.294 175.335 124.166 176.172 124.085C177.03 123.831 177.948 123.866 178.784 124.185C179.025 124.336 179.211 124.563 179.31 124.83C179.41 125.097 179.419 125.389 179.336 125.662C179.089 126.178 178.707 126.619 178.232 126.939C177.757 127.258 177.205 127.445 176.634 127.48C175.486 127.735 174.285 127.548 173.269 126.958C173.047 126.81 172.873 126.601 172.767 126.356C172.661 126.112 172.628 125.842 172.672 125.579C172.715 125.317 172.833 125.072 173.012 124.874C173.191 124.677 173.423 124.535 173.68 124.466Z" fill="#263238"/>
<path d="M199.88 128.063C199.121 127.71 198.384 127.314 197.67 126.877C196.838 126.563 196.132 125.984 195.661 125.23C195.555 124.964 195.541 124.67 195.621 124.396C195.701 124.121 195.871 123.881 196.103 123.713C196.611 123.449 197.181 123.325 197.753 123.355C198.326 123.385 198.879 123.568 199.357 123.884C200.421 124.374 201.265 125.24 201.728 126.315C201.821 126.569 201.837 126.845 201.774 127.108C201.712 127.371 201.574 127.61 201.378 127.796C201.181 127.981 200.935 128.106 200.669 128.153C200.403 128.201 200.128 128.169 199.88 128.063Z" fill="#263238"/>
<path d="M192.295 135.426C192.295 135.346 192.446 135.597 192.406 135.698C191.582 138.038 191.029 140.851 192.908 142.318C192.968 142.368 192.908 142.478 192.848 142.448C190.356 141.243 191.13 137.516 192.295 135.426Z" fill="#263238"/>
<path d="M195.188 133.678C199.086 134.603 196.946 142.318 193.34 141.464C189.734 140.61 191.924 132.865 195.188 133.678Z" fill="#263238"/>
<path d="M196.595 134.462C197.147 135.085 197.599 136.039 198.383 136.341C199.167 136.642 200.231 136.079 201.055 135.477C201.146 135.416 201.196 135.477 201.166 135.597C200.784 137.084 199.789 138.45 198.152 138.229C196.655 138.028 195.982 136.431 196.022 134.844C196.022 134.552 196.374 134.211 196.595 134.462Z" fill="#263238"/>
<path d="M177.829 131.418C177.829 131.318 177.608 131.478 177.588 131.579C177.016 133.99 175.961 136.662 173.57 136.873C173.5 136.873 173.48 137.004 173.57 137.014C176.313 137.355 177.679 133.789 177.829 131.418Z" fill="#263238"/>
<path d="M176.363 128.334C172.585 127.008 170.215 134.663 173.711 135.888C177.206 137.114 179.517 129.449 176.363 128.334Z" fill="#263238"/>
<path d="M174.605 128.344C173.882 128.565 173.048 129.118 172.314 128.937C171.581 128.756 171.099 127.711 170.808 126.757C170.808 126.656 170.697 126.707 170.667 126.757C170.175 128.214 170.185 129.881 171.501 130.604C172.817 131.328 174.032 130.293 174.836 128.947C174.977 128.736 174.906 128.254 174.605 128.344Z" fill="#263238"/>
<path d="M184.902 154.332C184.188 154.764 183.435 155.407 182.541 155.287C181.644 155.065 180.805 154.654 180.08 154.081C180.064 154.073 180.047 154.069 180.03 154.071C180.012 154.072 179.996 154.079 179.982 154.089C179.968 154.1 179.958 154.114 179.952 154.131C179.946 154.147 179.945 154.165 179.949 154.182C180.185 154.735 180.566 155.214 181.053 155.568C181.539 155.922 182.113 156.137 182.712 156.191C183.235 156.175 183.741 156.004 184.166 155.7C184.592 155.396 184.918 154.972 185.103 154.483C185.173 154.363 185.002 154.262 184.902 154.332Z" fill="#263238"/>
<path d="M177.428 142.84C177.428 142.84 175.72 146.597 175.238 148.285C178.414 149.346 181.669 150.156 184.972 150.706C185.173 150.706 185.344 149.963 185.163 149.912C180.471 148.456 179.567 148.154 176.925 147.441C176.925 146.939 179.728 141.675 179.467 141.574C178.144 141.318 176.792 141.24 175.449 141.343C178.412 134.13 182.481 127.46 185.344 120.247C185.444 119.986 185.082 119.795 184.942 120.006C180.16 126.707 176.564 134.924 173.319 142.288C172.857 143.192 176.674 142.93 177.428 142.84Z" fill="#263238"/>
<path d="M222.362 150.977C213.783 148.606 217.621 121.433 218.123 118.097C217.701 120.177 215.39 131.157 214.446 131.438C213.524 131.196 212.648 130.802 211.854 130.273C212.163 128.951 212.371 127.608 212.477 126.255C212.547 125.632 211.935 127.52 211.041 129.801C210.579 129.55 210.036 129.258 209.544 128.977C210.312 126.202 210.704 123.337 210.709 120.458C210.709 119.363 209.313 123.954 207.354 127.782C201.768 124.768 193.662 120.569 185.665 118.379C183.535 117.786 181.647 117.374 179.999 117.053C180.753 113.818 181.948 110.463 181.536 111.146C180.427 112.947 179.495 114.851 178.754 116.832C177.85 116.671 177.006 116.53 176.252 116.43C177.116 111.809 181.024 105.048 180.029 105.992C177.046 108.908 174.64 112.361 172.937 116.169C171.533 116.206 170.132 116.016 168.788 115.606C168.979 114.109 171.732 105.209 182.943 96.7503C196.695 86.3731 221.408 89.7786 229.816 108.363C229.816 108.363 238.265 117.284 237.33 128.183C236.396 139.083 227.315 152.343 222.362 150.977Z" fill="#263238"/>
<path d="M216.686 152.866C216.686 152.866 227.335 143.975 231.564 148.064C235.793 152.152 225.717 166.488 219.288 167.07C218.469 167.202 217.631 167.167 216.825 166.966C216.02 166.766 215.263 166.405 214.601 165.905C213.938 165.405 213.384 164.776 212.97 164.056C212.557 163.336 212.294 162.54 212.196 161.716L216.686 152.866Z" fill="#D3766A"/>
<path d="M228.57 152.102C228.66 152.102 228.64 152.253 228.57 152.263C224.029 152.816 220.835 156.03 218.263 159.556C219.891 158.371 221.769 157.989 223.407 159.988C223.497 160.099 223.346 160.239 223.246 160.179C222.588 159.755 221.815 159.545 221.032 159.577C220.25 159.609 219.497 159.883 218.876 160.36C217.847 161.172 216.904 162.087 216.063 163.092C215.772 163.414 215.159 163.032 215.42 162.65C215.434 162.62 215.455 162.592 215.481 162.57C216.766 157.316 222.814 151.108 228.57 152.102Z" fill="#263238"/>
<path d="M183.535 96.3786C193.152 92.8846 203.759 93.3287 213.05 97.6143C224.884 103.029 237.642 112.171 241.831 134.603C241.831 134.603 247.155 109.609 229.213 97.0316C206.641 81.2397 188.307 91.2955 183.535 96.3786Z" fill="#ED0002"/>
<path d="M156.201 174.313C156.201 174.313 161.023 165.272 167.633 169.632C174.243 173.992 167.854 181.978 167.854 181.978L156.201 174.313Z" fill="#FF9CBD"/>
<path d="M168.074 181.64L156.426 173.977L116.916 234.033L128.565 241.696L168.074 181.64Z" fill="#ED0002"/>
<path d="M169.276 181.959L155.672 173.01L154.104 175.393L167.708 184.343L169.276 181.959Z" fill="#37474F"/>
<path d="M167.527 184.598L153.923 175.648L152.355 178.031L165.959 186.981L167.527 184.598Z" fill="#37474F"/>
<path d="M128.575 241.7L119.313 246.19L116.299 247.687L116.45 244.282L116.942 233.985L119.102 233.262C119.102 233.262 119.263 235.482 119.273 235.522L121.443 234.799C121.443 234.799 121.603 237.009 121.613 237.049L123.743 236.316C123.743 236.316 123.934 238.546 123.944 238.586L126.084 237.853L126.275 240.163L128.414 239.43C128.414 239.43 128.565 241.66 128.575 241.7Z" fill="#EBEBEB"/>
<path d="M119.313 246.231L116.269 247.727L116.42 244.322L119.313 246.231Z" fill="#37474F"/>
<g opacity="0.1">
<path opacity="0.1" d="M121.985 231.373C124.507 227.264 127.088 223.196 129.69 219.137L137.556 207.012L145.593 194.957C148.295 190.939 151.007 186.981 153.78 183.043C151.268 187.152 148.677 191.22 146.085 195.279L138.209 207.404L130.172 219.459C127.47 223.447 124.768 227.435 121.985 231.373Z" fill="black"/>
<path opacity="0.1" d="M125.481 233.704C128.002 229.585 130.584 225.526 133.186 221.468L141.052 209.343L149.088 197.288C151.791 193.27 154.503 189.312 157.276 185.374C154.764 189.482 152.172 193.541 149.581 197.599L141.705 209.725L133.668 221.779C130.966 225.778 128.284 229.756 125.481 233.704Z" fill="black"/>
<path opacity="0.1" d="M128.977 236.024C131.499 231.916 134.09 227.847 136.682 223.789L144.558 211.673L152.595 199.619C155.287 195.6 157.999 191.642 160.772 187.704C158.26 191.823 155.669 195.882 153.077 199.94L145.201 212.065L137.164 224.12C134.462 228.108 131.76 232.126 128.977 236.024Z" fill="black"/>
</g>
<path d="M235.01 219.931C246.884 248.591 264.916 308.605 251.414 327.501C238.405 345.713 164.177 304.777 149.119 296.359C142.941 292.923 159.405 239.952 166.407 242.785C181.797 249.023 213.17 270.511 214.004 270.119C214.838 269.728 213.703 245.487 213.522 221.578C213.261 186.83 226.481 199.327 235.01 219.931Z" fill="#D3766A"/>
<path d="M122.497 209.473C117.374 213.773 121.905 218.997 121.905 218.997C118.999 218.921 116.158 219.859 113.868 221.649C109.97 225.014 113.537 232.599 113.537 232.599C110.502 233.149 107.702 234.598 105.5 236.758C102.095 240.344 104.596 248.511 104.596 248.511C102.078 250.559 100.377 253.443 99.8042 256.638C98.6288 265.237 108.745 273.796 115.214 279.191C124.828 287.227 144.94 294.139 149.199 296.389L184.54 255.523C184.54 255.523 162.439 223.377 154.292 217.49C145.994 211.513 127.54 205.244 122.497 209.473Z" fill="#D3766A"/>
<path d="M122.759 218.585C131.479 221.599 138.832 226.953 146.507 231.916C146.678 232.026 146.507 232.297 146.326 232.187C138.772 227.164 130.253 223.698 122.568 218.977C122.526 218.946 122.495 218.902 122.482 218.851C122.47 218.801 122.475 218.747 122.498 218.7C122.521 218.653 122.56 218.616 122.607 218.595C122.655 218.574 122.709 218.57 122.759 218.585Z" fill="#263238"/>
<path d="M114.089 232.177C116.004 233.046 117.797 234.16 119.424 235.492C121.232 236.798 123.013 238.137 124.768 239.51C128.304 242.243 131.763 245.055 135.145 247.948C135.296 248.079 135.145 248.34 134.974 248.22C131.448 245.507 127.942 242.845 124.256 240.284C122.434 239.004 120.609 237.739 118.781 236.486C116.974 235.414 115.29 234.147 113.758 232.709C113.706 232.658 113.673 232.59 113.664 232.518C113.656 232.446 113.672 232.372 113.711 232.31C113.749 232.248 113.808 232.201 113.877 232.177C113.945 232.153 114.02 232.153 114.089 232.177Z" fill="#263238"/>
<path d="M104.676 248.622C106.394 249.194 107.921 250.741 109.318 251.866C110.891 253.145 112.479 254.415 114.079 255.674C117.274 258.185 120.458 260.696 123.733 263.097C123.904 263.218 123.733 263.479 123.562 263.359C120.217 260.938 116.852 258.557 113.517 256.106C111.889 254.9 110.262 253.685 108.655 252.469C107.278 251.464 105.44 250.279 104.526 248.782C104.486 248.702 104.586 248.601 104.676 248.622Z" fill="#263238"/>
<path d="M184.871 250.209L156.412 305.008C156.412 305.008 220.283 335.437 242.805 332.423C265.328 329.409 254.86 286.444 253.494 276.76C252.489 269.838 240.716 227.988 231.514 210.97C222.312 193.953 214.185 193.661 212.919 216.837C211.653 240.012 213.542 268.171 212.608 267.749C211.673 267.327 184.871 250.209 184.871 250.209Z" fill="#455A64"/>
<path d="M223.387 247.517C221.707 248.131 220.123 248.984 218.685 250.048C222.254 249.675 225.664 248.38 228.58 246.291C226.799 246.449 225.05 246.861 223.387 247.517ZM193.43 308.795C191.752 309.411 190.17 310.26 188.729 311.317C192.297 310.944 195.707 309.649 198.624 307.56C196.841 307.731 195.092 308.157 193.43 308.826V308.795ZM242.283 307.66C240.605 308.276 239.022 309.124 237.581 310.182C239.371 310.033 241.131 309.627 242.805 308.976C244.487 308.369 246.07 307.52 247.506 306.455C245.715 306.613 243.955 307.029 242.283 307.69V307.66ZM219.951 287.9C219.344 286.219 218.494 284.635 217.43 283.199C217.803 286.767 219.097 290.177 221.187 293.094C221.027 291.322 220.611 289.583 219.951 287.93V287.9ZM178.844 287.73C177.223 286.973 175.5 286.455 173.731 286.193C175.107 287.335 176.639 288.275 178.281 288.985C179.902 289.745 181.625 290.266 183.395 290.532C182.014 289.401 180.483 288.468 178.844 287.76V287.73ZM246.15 277.101C244.534 276.341 242.814 275.823 241.047 275.564C242.418 276.709 243.948 277.649 245.588 278.357C247.211 279.111 248.932 279.632 250.701 279.904C249.335 278.772 247.817 277.839 246.19 277.131L246.15 277.101ZM231.192 218.836C229.572 218.085 227.854 217.568 226.089 217.299C227.46 218.446 228.989 219.39 230.63 220.102C232.253 220.852 233.975 221.37 235.743 221.639C234.377 220.496 232.859 219.55 231.232 218.826L231.192 218.836ZM215.822 323.723C215.215 325.064 214.751 326.465 214.436 327.902L214.918 328.043C215.771 326.874 216.498 325.618 217.088 324.296C217.837 322.672 218.355 320.951 218.625 319.183C217.481 320.556 216.537 322.085 215.822 323.723ZM198.242 258.768C197.296 260.009 196.5 261.357 195.871 262.786C195.113 264.404 194.592 266.123 194.324 267.889C195.472 266.518 196.416 264.989 197.127 263.349C197.767 261.94 198.246 260.464 198.554 258.949L198.242 258.768Z" fill="#37474F"/>
<path d="M212.668 266.985C215.417 269.978 217.873 273.227 220.001 276.689C222.085 279.997 223.996 283.41 225.727 286.916C225.727 286.996 225.567 287.036 225.516 286.916C223.507 283.561 221.086 280.286 218.866 276.981C216.646 273.676 214.064 270.481 212.065 267.126C211.935 266.945 212.497 266.794 212.668 266.985Z" fill="#263238"/>
<path d="M244.302 243.699C245.979 250.601 252.62 274.449 253.795 281.441C255.09 288.409 255.905 295.457 256.236 302.537C256.352 306.038 256.211 309.544 255.814 313.025C255.493 316.477 254.66 319.863 253.343 323.07C252.084 326.175 249.718 328.702 246.703 330.163C243.556 331.425 240.152 331.911 236.778 331.579C229.856 331.187 223.025 329.188 216.274 327.139C209.524 325.09 202.853 322.638 196.183 320.227C189.512 317.816 182.882 315.315 176.272 312.723C169.662 310.131 163.042 307.57 156.472 304.898L156.522 305.068L158.29 301.412L156.281 304.958L156.221 305.068L156.341 305.119C162.791 308.132 169.27 311.015 175.8 313.798C182.33 316.581 188.92 319.273 195.54 321.835C202.16 324.396 208.871 326.807 215.631 328.997C222.392 331.187 229.314 333.287 236.617 333.679C240.344 333.973 244.086 333.363 247.527 331.901C249.257 331.088 250.805 329.933 252.077 328.505C253.33 327.093 254.347 325.489 255.091 323.753C256.451 320.364 257.304 316.793 257.622 313.155C258.003 309.599 258.087 306.017 257.874 302.446C256.216 278.729 248.421 257.291 244.302 243.699Z" fill="#263238"/>
<path d="M212.467 230.449C212.346 233.372 212.326 236.285 212.246 239.209L212.166 247.959C212.085 253.795 212.166 259.642 212.035 265.438L211.985 266.513V267.025V267.266V267.347L212.045 267.226C212.14 267.084 212.282 266.981 212.447 266.935H212.557C212.624 266.92 212.692 266.92 212.758 266.935H212.849H212.799L212.608 266.834L212.146 266.593L211.211 266.061C209.966 265.328 208.72 264.564 207.484 263.801L200.01 259.25L192.526 254.719L184.912 250.209H184.841V250.279L184.299 251.485L184.972 250.349H184.861C187.242 252.057 189.623 253.745 192.034 255.372L199.287 260.275C201.718 261.902 204.169 263.469 206.63 265.056C207.876 265.83 209.112 266.603 210.378 267.357L211.332 267.919L211.844 268.191C211.936 268.247 212.034 268.294 212.136 268.331H212.206H212.266L212.417 268.381C212.527 268.396 212.638 268.396 212.748 268.381H212.929C213.107 268.309 213.26 268.187 213.371 268.03L213.452 267.889V267.799C213.456 267.755 213.456 267.712 213.452 267.668V267.477V267.176V266.593V265.478C213.542 259.612 213.452 253.785 213.2 247.948L212.829 239.189C212.839 236.275 212.668 233.362 212.467 230.449Z" fill="#263238"/>
<path d="M180.903 289.206C184.128 282.908 187.312 276.579 190.788 270.391C192.797 266.885 194.706 263.359 196.715 259.863C196.796 259.732 197.027 259.863 196.966 259.983C193.953 266.433 190.939 272.892 187.664 279.211C184.389 285.53 181.175 291.808 177.819 298.046C175.911 301.603 173.901 305.078 171.792 308.514C171.792 308.574 171.631 308.514 171.661 308.444C174.414 301.894 177.638 295.555 180.903 289.206Z" fill="#263238"/>
<path d="M210.177 237.33C210.633 240.752 211.438 244.118 212.577 247.376C212.367 245.664 212.055 243.967 211.643 242.293C211.248 240.612 210.758 238.955 210.177 237.33Z" fill="#263238"/>
<path d="M179.276 194.957C179.276 194.957 177.729 211.593 187.363 212.447C196.997 213.301 211.784 199.89 217.751 194.957C211.744 190.17 204.157 187.814 196.494 188.357C185.123 188.99 179.276 194.957 179.276 194.957Z" fill="#D3766A"/>
<path d="M227.405 361.686H114.511V366.749H227.405V361.686Z" fill="#A6A6A6"/>
<path d="M227.395 361.686H170.576V366.749H227.395V361.686Z" fill="#C7C7C7"/>
<path d="M161.445 366.739H51.4241L35.8733 292.019H145.904L161.445 366.739Z" fill="#C7C7C7"/>
<path d="M107.188 331.047C107.311 331.973 107.233 332.915 106.958 333.809C106.683 334.702 106.218 335.525 105.594 336.222C104.971 336.919 104.205 337.472 103.347 337.845C102.49 338.217 101.562 338.4 100.628 338.38C98.6213 338.335 96.6979 337.569 95.2094 336.222C93.7209 334.876 92.7666 333.039 92.5211 331.047C92.3976 330.119 92.4763 329.176 92.752 328.282C93.0276 327.388 93.4936 326.564 94.1178 325.868C94.7421 325.171 95.5099 324.617 96.3684 324.245C97.2268 323.874 98.1557 323.692 99.091 323.713C101.097 323.757 103.02 324.522 104.508 325.869C105.995 327.216 106.947 329.055 107.188 331.047Z" fill="white"/>
<path d="M10.6887 253.222C9.36377 257.093 9.14194 261.256 10.048 265.246C10.954 269.236 12.9522 272.895 15.8191 275.814C18.6859 278.733 22.3083 280.797 26.2811 281.774C30.2538 282.752 34.4203 282.605 38.3144 281.35L47.6469 287.378L46.6423 276.408C49.0881 274.117 50.9794 271.298 52.1726 268.166C53.3657 265.034 53.8292 261.672 53.5279 258.334C53.2267 254.996 52.1685 251.771 50.4339 248.903C48.6992 246.036 46.3337 243.601 43.5172 241.785C40.7006 239.968 37.5071 238.818 34.1793 238.421C30.8515 238.024 27.4769 238.391 24.3121 239.493C21.1473 240.596 18.2754 242.406 15.9148 244.784C13.5541 247.163 11.7668 250.049 10.6887 253.222Z" fill="#ED0002"/>
<path d="M25.4845 252.468L23.3677 254.585L37.61 268.828L39.7268 266.711L25.4845 252.468Z" fill="white"/>
<path d="M39.7216 254.587L37.6047 252.47L23.3624 266.713L25.4792 268.829L39.7216 254.587Z" fill="white"/>
<path d="M103.431 68.0095C103.537 73.3672 105.131 78.5898 108.034 83.094C110.938 87.5981 115.036 91.2065 119.871 93.5159C124.707 95.8253 130.089 96.7448 135.417 96.1718C140.745 95.5987 145.809 93.5557 150.043 90.2708L164.278 93.596L158.11 80.5365C160.28 76.3014 161.361 71.592 161.254 66.8342C161.239 62.9958 160.46 59.1989 158.963 55.6646C157.465 52.1304 155.279 48.9296 152.532 46.2488C149.785 43.568 146.532 41.4609 142.962 40.0502C139.392 38.6395 135.578 37.9535 131.74 38.0322C127.902 38.1108 124.119 38.9526 120.61 40.5084C117.101 42.0642 113.937 44.3029 111.302 47.0941C108.667 49.8852 106.614 53.1729 105.263 56.7655C103.911 60.3581 103.289 64.1838 103.431 68.0196V68.0095Z" fill="white"/>
<path d="M103.431 68.0095C103.568 73.3672 105.185 78.5825 108.102 83.0781C108.822 84.1933 109.614 85.2604 110.473 86.2726C111.356 87.2666 112.303 88.2027 113.306 89.0754C114.297 89.9579 115.351 90.767 116.46 91.4964C117.003 91.8782 117.605 92.1695 118.168 92.501L119.032 92.9932C119.323 93.154 119.635 93.2745 119.936 93.4152C122.333 94.5454 124.875 95.3366 127.49 95.7659C128.796 95.9747 130.116 96.0889 131.438 96.1074C132.759 96.1661 134.083 96.1191 135.396 95.9668C140.664 95.3629 145.659 93.3036 149.822 90.0197L149.953 89.9193H150.123L164.378 93.164L163.876 93.7768L157.678 80.7174L157.577 80.5064L157.678 80.2954C159.625 76.4367 160.683 72.1903 160.772 67.8689C160.851 63.5395 159.945 59.2487 158.12 55.3218C156.272 51.4076 153.591 47.9447 150.264 45.1756C146.906 42.42 142.961 40.4713 138.732 39.4797C134.488 38.4722 130.071 38.4378 125.813 39.3792C121.553 40.3679 117.568 42.2969 114.15 45.0249C110.737 47.7925 107.999 51.3 106.142 55.2821C104.285 59.2641 103.358 63.6164 103.431 68.0095ZM103.431 68.0095C103.334 63.6043 104.24 59.2347 106.081 55.2317C107.923 51.2286 110.651 47.697 114.059 44.9044C117.458 42.0755 121.461 40.0668 125.761 39.0338C130.06 38.0007 134.54 37.9711 138.852 38.9473C143.194 39.8929 147.26 41.8246 150.736 44.593C154.212 47.3828 157.011 50.9238 158.923 54.9501C160.839 58.9854 161.8 63.407 161.734 67.8732C161.668 72.3394 160.576 76.7306 158.542 80.7073V80.2854L164.67 93.3448L165.061 94.1686L164.167 93.9576L149.953 90.5521L150.254 90.4818C145.955 93.773 140.824 95.801 135.437 96.3385C134.101 96.4707 132.758 96.4975 131.418 96.4188C130.071 96.3813 128.728 96.247 127.4 96.017C124.767 95.5376 122.211 94.6993 119.805 93.5257C117.395 92.3651 115.162 90.8666 113.175 89.0754C112.175 88.1957 111.232 87.2528 110.352 86.2526C109.497 85.2298 108.708 84.1527 107.992 83.0279C105.121 78.5355 103.543 73.3394 103.431 68.0095Z" fill="#263238"/>
<path d="M127.34 72.5C127.319 71.2904 127.537 70.0886 127.983 68.9639C128.539 67.7844 129.472 66.8233 130.635 66.2314C131.036 65.9903 131.539 65.7091 132.121 65.4077C132.729 65.0861 133.31 64.7166 133.859 64.3027C134.412 63.8795 134.894 63.3708 135.286 62.7958C135.677 62.1994 135.879 61.4996 135.868 60.7867C135.877 60.2729 135.767 59.7641 135.547 59.2999C135.335 58.8894 135.049 58.5216 134.703 58.2149C134.34 57.9184 133.924 57.6935 133.478 57.5519C133.013 57.4044 132.528 57.3298 132.041 57.3309C131.491 57.3243 130.944 57.4267 130.434 57.6323C129.967 57.8285 129.528 58.0852 129.128 58.3958C128.761 58.6973 128.425 59.0338 128.123 59.4003C127.841 59.753 127.579 60.122 127.34 60.5054L123.844 58.0944C124.179 57.2853 124.648 56.5383 125.23 55.8843C125.813 55.2426 126.49 54.6938 127.239 54.2569C127.986 53.8126 128.79 53.4744 129.63 53.2524C130.495 53.0228 131.387 52.908 132.282 52.9108C133.303 52.9087 134.319 53.0576 135.296 53.3528C136.271 53.64 137.179 54.1181 137.968 54.7592C138.785 55.4314 139.443 56.2751 139.897 57.2305C140.416 58.3567 140.67 59.587 140.64 60.8268C140.652 61.5976 140.551 62.366 140.339 63.1072C140.143 63.7437 139.852 64.3467 139.475 64.8953C139.098 65.4334 138.652 65.9198 138.149 66.3419C137.601 66.7943 137.023 67.2104 136.421 67.5876C135.879 67.9091 135.346 68.2205 134.814 68.5118C134.293 68.7981 133.802 69.1345 133.347 69.5164C132.912 69.8645 132.541 70.2861 132.252 70.7621C131.959 71.2824 131.813 71.8728 131.83 72.4698L127.34 72.5ZM127.42 81.8726V76.3173H131.88V81.8726H127.42Z" fill="#ED0002"/>
</svg>
