<svg width="14" height="20" viewBox="0 0 14 20" fill="none" xmlns="http://www.w3.org/2000/svg">
<path d="M13.4675 17.564C13.5333 17.7169 13.5114 17.8698 13.4235 18.0009L12.3694 19.7704C12.2596 19.9452 12.04 20.0326 11.8424 19.9889L9.84392 19.4646C9.6902 19.4209 9.55843 19.3116 9.51451 19.1806L7.73569 14.8551C7.93333 14.9207 8.13098 14.9425 8.35059 14.9425C9.1851 14.9425 9.93176 14.5056 10.3271 13.7847L10.349 13.741H10.3929C10.5247 13.7628 10.6565 13.7847 10.7882 13.7847C11.1616 13.7847 11.5129 13.6973 11.8204 13.5444L13.4675 17.564ZM3.65098 13.7628L3.62902 13.7191H3.5851C3.45333 13.741 3.32157 13.7628 3.1898 13.7628C2.83843 13.7628 2.48706 13.6754 2.20157 13.5225L0.55451 17.5421C0.488628 17.6951 0.510588 17.848 0.598431 17.9791L1.65255 19.7486C1.76235 19.9233 1.98196 20.0107 2.17961 19.967L4.17804 19.4427C4.33176 19.399 4.46353 19.2898 4.50745 19.1587L6.28627 14.8333C6.06667 14.8988 5.86902 14.9207 5.64941 14.9207C4.8149 14.9425 4.04627 14.4837 3.65098 13.7628ZM13.6871 6.13866C14.1043 6.51003 14.1043 7.14356 13.6871 7.49309L13.4235 7.7334C13.138 7.99555 13.0282 8.41061 13.182 8.76015L13.3137 9.08783C13.5333 9.59029 13.2478 10.1583 12.7208 10.3112L12.3694 10.3986C11.9961 10.5078 11.7325 10.8355 11.7106 11.2287L11.6886 11.5782C11.6667 12.0589 11.2494 12.4302 10.7882 12.4302C10.7443 12.4302 10.6784 12.4302 10.6345 12.4084L10.2831 12.3429C10.2392 12.3429 10.1733 12.321 10.1294 12.321C9.8 12.321 9.49255 12.4958 9.33882 12.7798L9.16314 13.0856C8.98745 13.3914 8.68 13.5444 8.37255 13.5444C8.19686 13.5444 7.99922 13.4788 7.84549 13.3696L7.56 13.1511C7.40627 13.0419 7.20863 12.9764 7.03294 12.9764C6.85725 12.9764 6.65961 13.0419 6.50588 13.1511L6.22039 13.3478C6.06667 13.457 5.86902 13.5225 5.69333 13.5225C5.36392 13.5225 5.05647 13.3478 4.90275 13.0419L4.72706 12.7361C4.57333 12.4302 4.26588 12.2555 3.93647 12.2555C3.89255 12.2555 3.82667 12.2555 3.78274 12.2773L3.36549 12.4084C3.32157 12.4084 3.25569 12.4302 3.21177 12.4302C2.72863 12.4302 2.33333 12.0589 2.31137 11.5782L2.28941 11.2287C2.26745 10.8355 2.00392 10.5078 1.63059 10.3986L1.27922 10.3112C0.752157 10.1583 0.488628 9.59029 0.686275 9.08783L0.818039 8.76015C0.971765 8.41061 0.883922 7.99555 0.576471 7.7334L0.312941 7.49309C-0.104314 7.12172 -0.104314 6.48819 0.312941 6.13866L0.576471 5.89835C0.861961 5.63621 0.971765 5.22114 0.818039 4.8716L0.686275 4.54392C0.466667 4.04146 0.752157 3.47347 1.27922 3.32055L1.63059 3.23317C2.00392 3.12394 2.26745 2.79626 2.28941 2.40303L2.31137 2.0535C2.33333 1.57289 2.75059 1.20152 3.21177 1.20152C3.25569 1.20152 3.32157 1.20152 3.36549 1.22336L3.71686 1.2889C3.76078 1.2889 3.82667 1.31075 3.87059 1.31075C4.2 1.31075 4.50745 1.13598 4.66118 0.851985L4.83686 0.546144C5.01255 0.240303 5.32 0.087383 5.62745 0.087383C5.80314 0.087383 6.00078 0.15292 6.15451 0.262149L6.44 0.480607C6.59373 0.589835 6.79137 0.655373 6.96706 0.655373C7.14275 0.655373 7.34039 0.589835 7.49412 0.480607L7.84549 0.174766C7.99922 0.0655373 8.19686 0 8.37255 0C8.70196 0 9.00941 0.174766 9.16314 0.480607L9.33882 0.786447C9.49255 1.09229 9.8 1.26705 10.1294 1.26705C10.1733 1.26705 10.2392 1.26705 10.2831 1.24521L10.6345 1.17967C10.6784 1.17967 10.7443 1.15783 10.7882 1.15783C11.2714 1.15783 11.6667 1.5292 11.6886 2.00981L11.7106 2.35934C11.7325 2.75257 11.9961 3.08025 12.3694 3.18948L12.7208 3.27686C13.2478 3.42978 13.5114 3.99777 13.3137 4.50023L13.182 4.82791C13.0282 5.17744 13.1161 5.59251 13.4235 5.85466L13.6871 6.13866ZM9.84392 5.65805L8.04314 5.52698L7.36235 3.8667C7.29647 3.71378 7.16471 3.62639 7.01098 3.62639C6.85725 3.62639 6.72549 3.71378 6.65961 3.8667L5.97882 5.52698L4.17804 5.65805C3.84863 5.6799 3.6949 6.09496 3.95843 6.31342L5.34196 7.4494L4.92471 9.17522C4.85882 9.43737 5.05647 9.63398 5.27608 9.63398C5.34196 9.63398 5.40784 9.61213 5.47373 9.56844L6.98902 8.62907L8.52627 9.56844C8.59216 9.61213 8.65804 9.63398 8.72392 9.63398C8.94353 9.63398 9.14118 9.41552 9.07529 9.17522L8.65804 7.4494L10.0635 6.31342C10.3271 6.09496 10.1733 5.6799 9.84392 5.65805Z" fill="#FBA069"/>
</svg>
